id,name,number_of_seasons,number_of_episodes,spoken_languages,first_air_date,last_air_date,status,genres,networks,adult
101,Nouvelle série,3,24,English,2024-06-01,2025-06-01,En cours,"Drame,Fantaisie",Netflix,0
1,Nouvelle Série,1,10,English,2024-05-01,2024-06-01,In Production,Drama,Network1,0
1,Nouvelle Série,1,10,English,2024-05-01,2024-06-01,In Production,Drama,Network1,0
1,Nouvelle Série,1,10,English,2024-05-01,2024-06-01,In Production,Drama,Network1,0
3,Nouvelle Série2,1,10,English,2024-05-01,2024-06-01,In Production,Drama,Network1,0
4,Nouvelle Série3,1,10,English,2024-05-01,2024-06-01,In Production,Drama,Network1,0
4,Nouvelle Série3,1,10,English,2024-05-01,2024-06-01,In Production,Drama,Network1,0
4,Nouvelle Série3,1,10,English,2024-05-01,2024-06-01,In Production,Drama,Network1,0
4,Nouvelle Série3,1,10,English,2024-05-01,2024-06-01,In Production,Drama,Network1,0
4,Nouvelle Série3,1,10,English,2024-05-01,2024-06-01,In Production,Drama,Network1,0
7677,Nouvelle Série111,1,10,English,2024-05-01,2024-06-01,In Production,Drama,Network1,0
7677,Nouvelle Série111,1,10,English,2024-05-01,2024-06-01,In Production,Drama,Network1,0
7677,Nouvelle Série111,1,10,English,2024-05-01,2024-06-01,In Production,Drama,Network1,0
7677,Nouvelle Série111,1,10,English,2024-05-01,2024-06-01,In Production,Drama,Network1,0
7677,Nouvelle Série111,1,10,English,2024-05-01,2024-06-01,In Production,Drama,Network1,0
7677,Nouvelle Série111,1,10,English,2024-05-01,2024-06-01,In Production,Drama,Network1,0
7677,Nouvelle Série111,1,10,English,2024-05-01,2024-06-01,In Production,Drama,Network1,0
